module gitlab.com/theizzatbek/math_api

go 1.16

require (
	github.com/alecthomas/template v0.0.0-20190718012654-fb15b899a751
	github.com/go-openapi/jsonreference v0.19.6 // indirect
	github.com/go-openapi/spec v0.20.3 // indirect
	github.com/go-openapi/swag v0.19.15 // indirect
	github.com/joho/godotenv v1.3.0
	github.com/labstack/echo/v4 v4.3.0
	github.com/mailru/easyjson v0.7.7 // indirect
	github.com/mattn/go-isatty v0.0.13 // indirect
	github.com/spf13/cast v1.3.1
	github.com/stretchr/testify v1.7.0
	github.com/swaggo/echo-swagger v1.1.0
	github.com/swaggo/swag v1.7.0
	golang.org/x/crypto v0.0.0-20210616213533-5ff15b29337e // indirect
	golang.org/x/net v0.0.0-20210614182718-04defd469f4e // indirect
	golang.org/x/sys v0.0.0-20210616094352-59db8d763f22 // indirect
	golang.org/x/tools v0.1.4 // indirect
	gopkg.in/yaml.v3 v3.0.0-20210107192922-496545a6307b // indirect
)
